{
  "rasa_nlu_data": {
    "common_examples": [
      {
        "intent": "greet",
        "text": "hi"
      },
      {
        "intent": "greet",
        "text": "hello"
      },
      {
        "intent": "greet",
        "text": "how r u"
      },
      {
        "intent": "greet",
        "text": "whats app"
      },
      {
        "intent": "goodbye",
        "text": "bye"
      },
      {
        "intent": "goodbye",
        "text": "thanks"
      }
    ],
    "regex_features": [],
    "entity_synonyms": []
  }
}